{
    "bloatware": [
        "3dbuilder",
        "ACGMEDIAPLAYER",
        "AdobePhotoshopExpress",
        "CandyCrushSodaSaga",
        "CommsPhone",
        "Duolingo",
        "Dell",
        "DropboxOEM",
        "FitbitCoach",
        "getstarted",
        "HP",
        "king.com.CandyCrushSaga",
        "king.com.BubbleWitch3Saga",
        "LinkedInforWindows",
        "Messaging",
        "MSPaint",
        "MovieMaker-FREE",
        "Microsoft.Whiteboard",
        "Microsoft.Office.Sway",
        "Microsoft.Todos",
        "Microsoft.MicrosoftMahjong",
        "Microsoft.MinecraftUWP",
        "NetworkSpeedTest",
        "Netflix",
        "NORDCURRENT.COOKINGFEVER",
        "OneConnect",
        "OneDrive",
        "onenote",
        "officehub",
        "PhototasticCollage",
        "PicsArt-PhotoStudio",
        "Plex",
        "print3d",
        "skypeapp",
        "solitairecollection",
        "soundrecorder",
        "twitter",
        "windowscamera",
        "WindowsMaps",
        "WindowsFeedbackHub",
        "Wallet",
        "windowsphone",
        "WinZipComputing.WinZipUniversal",
        "xbox",
        "zunemusic",
        "zunevideo"
    ],
    "ignoreList": [
        "Microsoft.XboxGameCallableUI"
    ]
}
